// Jest Snapshot v1, https://goo.gl/fbAQLP

exports[`Follower.vue should render correctly 1`] = `
<li class="follower"><img src="ahsokatano.png" alt="ahsoka-tano" class="avatar"> <a href="https://github.com/ahsokatano" class="handle">
    ahsoka-tano
  </a></li>
`;
